{"content":[{"id":149489,"applicant":{"fullName":"Алексей Карчевский","userName":"master","email":"a.karchevski@pflb.ru","location":"142784, г.Москва, Киевское шоссе, 22-й км,\nБП ComCity, домовл.6, стр.1","phone":"8 (000) 123-45-67","mobilePhone":"8 (000) 123-45-67","id":106},"header":"Не крутится транспортёрная лента","text":"Agalarov.A.1435461159","createDate":1574859857524,"lastEditDate":1574859857530,"ticketState":"Новый","ticketStateId":-1,"serviceId":2952,"syncMask":"PORTAL_ONLY","files":[{"id":4387,"name":"test_text_file.txt"}],"location":"256 Бинарная ул. 16","address":"256 Бинарная ул. 16","categories":["Технологическое оборудование","Холодильное оборудование","Центральная холодильная машина, конденсатор"],"category1":"Технологическое оборудование","category2":"Холодильное оборудование","category3":"Центральная холодильная машина, конденсатор","hasAttachments":true,"openCommunications":0,"totalCommunications":0,"actions":[]},{"id":149488,"applicant":{"fullName":"Алексей Карчевский","userName":"master","email":"a.karchevski@pflb.ru","location":"142784, г.Москва, Киевское шоссе, 22-й км,\nБП ComCity, домовл.6, стр.1","phone":"8 (000) 123-45-67","mobilePhone":"8 (000) 123-45-67","id":106},"header":"Не крутится транспортёрная лента","text":"Agalarov.A.1328499412","createDate":1574859854255,"lastEditDate":1574859854260,"ticketState":"Новый","ticketStateId":-1,"serviceId":2957,"syncMask":"PORTAL_ONLY","location":"default location","address":"default location","categories":["Технологическое оборудование","Холодильное оборудование","Холодильная камера"],"category1":"Технологическое оборудование","category2":"Холодильное оборудование","category3":"Холодильная камера","openCommunications":0,"totalCommunications":0,"actions":[]},{"id":149487,"applicant":{"fullName":"Алексей Карчевский","userName":"master","email":"a.karchevski@pflb.ru","location":"142784, г.Москва, Киевское шоссе, 22-й км,\nБП ComCity, домовл.6, стр.1","phone":"8 (000) 123-45-67","mobilePhone":"8 (000) 123-45-67","id":106},"header":"Не крутится транспортёрная лента","text":"Agalarov.A.1024574660","createDate":1574859847563,"lastEditDate":1574859847568,"ticketState":"Новый","ticketStateId":-1,"serviceId":2815,"inventoryNumber":"000010","inventoryId":10,"syncMask":"PORTAL_ONLY","location":"Изумрудная 14","address":"Изумрудная 14","categories":["Экология","Замена ковриков","Замена ковриков"],"category1":"Экология","category2":"Замена ковриков","category3":"Замена ковриков","openCommunications":0,"totalCommunications":0,"actions":[]},{"id":149486,"applicant":{"fullName":"Алексей Карчевский","userName":"master","email":"a.karchevski@pflb.ru","location":"142784, г.Москва, Киевское шоссе, 22-й км,\nБП ComCity, домовл.6, стр.1","phone":"8 (000) 123-45-67","mobilePhone":"8 (000) 123-45-67","id":106},"header":"Не крутится транспортёрная лента","text":"Agalarov.A.1603866523","createDate":1574859841045,"lastEditDate":1574859841051,"ticketState":"Новый","ticketStateId":-1,"serviceId":2979,"inventoryNumber":"000006","inventoryId":6,"syncMask":"PORTAL_ONLY","location":"Барклая 24","address":"Барклая 24","categories":["Технологическое оборудование","Холодильное оборудование","Холодильный Шкаф на Складе"],"category1":"Технологическое оборудование","category2":"Холодильное оборудование","category3":"Холодильный Шкаф на Складе","openCommunications":0,"totalCommunications":0,"actions":[]},{"id":149485,"applicant":{"fullName":"Алексей Карчевский","userName":"master","email":"a.karchevski@pflb.ru","location":"142784, г.Москва, Киевское шоссе, 22-й км,\nБП ComCity, домовл.6, стр.1","phone":"8 (000) 123-45-67","mobilePhone":"8 (000) 123-45-67","id":106},"header":"Не крутится транспортёрная лента","text":"Agalarov.A.2134239885","createDate":1574859836050,"lastEditDate":1574859836056,"ticketState":"Новый","ticketStateId":-1,"serviceId":2983,"syncMask":"PORTAL_ONLY","location":"default location","address":"default location","categories":["Технологическое оборудование","Холодильное оборудование","Холодильный Шкаф на Складе"],"category1":"Технологическое оборудование","category2":"Холодильное оборудование","category3":"Холодильный Шкаф на Складе","openCommunications":0,"totalCommunications":0,"actions":[]},{"id":149481,"applicant":{"fullName":"Алексей Карчевский","userName":"master","email":"a.karchevski@pflb.ru","location":"142784, г.Москва, Киевское шоссе, 22-й км,\nБП ComCity, домовл.6, стр.1","phone":"8 (000) 123-45-67","mobilePhone":"8 (000) 123-45-67","id":106},"director":{"fullName":"Васильев Павел1","userName":"director_1","email":"director@mail.com","location":"location","address":"152 Скотопрогонная ул. 13","phone":"+79778334486","mobilePhone":"8 (000) 123-45-67","workPhone":"+79778334486","organization":"organization","id":101122},"header":"Пленка выгорела(требуется замена)","text":"Some text 3","createDate":1574858363974,"lastEditDate":1574858363980,"ticketState":"Новый","ticketStateId":-1,"serviceId":2998,"syncMask":"PORTAL_ONLY","files":[{"id":4783,"name":"C:\\Users\\student\\Desktop\\Ogdanets\\Project\\UC01_task_create\\File1.txt"}],"location":"152 Скотопрогонная ул. 13","address":"152 Скотопрогонная ул. 13","categories":["Внешняя и внутренняя реклама","Наружняя реклама на фасаде (растяжки, пленка)"],"category1":"Внешняя и внутренняя реклама","category2":"Наружняя реклама на фасаде (растяжки, пленка)","hasAttachments":true,"openCommunications":0,"totalCommunications":0,"actions":[]},{"id":149480,"applicant":{"fullName":"Алексей Карчевский","userName":"master","email":"a.karchevski@pflb.ru","location":"142784, г.Москва, Киевское шоссе, 22-й км,\nБП ComCity, домовл.6, стр.1","phone":"8 (000) 123-45-67","mobilePhone":"8 (000) 123-45-67","id":106},"header":"Не работает морозильный Шкаф(указать какую температуру показывает)","text":"Some text 4","createDate":1574858348743,"lastEditDate":1574858348748,"ticketState":"Новый","ticketStateId":-1,"serviceId":2980,"syncMask":"PORTAL_ONLY","files":[{"id":4782,"name":"C:\\Users\\student\\Desktop\\Ogdanets\\Project\\UC01_task_create\\File1.txt"}],"location":"default location","address":"default location","categories":["Технологическое оборудование","Холодильное оборудование","Холодильный Шкаф на Складе"],"category1":"Технологическое оборудование","category2":"Холодильное оборудование","category3":"Холодильный Шкаф на Складе","hasAttachments":true,"openCommunications":0,"totalCommunications":0,"actions":[]},{"id":149479,"applicant":{"fullName":"Алексей Карчевский","userName":"master","email":"a.karchevski@pflb.ru","location":"142784, г.Москва, Киевское шоссе, 22-й км,\nБП ComCity, домовл.6, стр.1","phone":"8 (000) 123-45-67","mobilePhone":"8 (000) 123-45-67","id":106},"header":"Дверь зацепила авто машина (не открывается/незакрывается)","text":"Some text 2","createDate":1574858337908,"lastEditDate":1574858337914,"ticketState":"Новый","ticketStateId":-1,"serviceId":2940,"syncMask":"PORTAL_ONLY","files":[{"id":4781,"name":"C:\\Users\\student\\Desktop\\Ogdanets\\Project\\UC01_task_create\\File1.txt"}],"location":"default location","address":"default location","categories":["Технологическое оборудование","Автоматические  ворота и двери","Секционые ворота"],"category1":"Технологическое оборудование","category2":"Автоматические  ворота и двери","category3":"Секционые ворота","hasAttachments":true,"openCommunications":0,"totalCommunications":0,"actions":[]},{"id":149478,"applicant":{"fullName":"Алексей Карчевский","userName":"master","email":"a.karchevski@pflb.ru","location":"142784, г.Москва, Киевское шоссе, 22-й км,\nБП ComCity, домовл.6, стр.1","phone":"8 (000) 123-45-67","mobilePhone":"8 (000) 123-45-67","id":106},"header":"Отсутствие индикации на контрольных приборах","text":"Some text 2","createDate":1574858325574,"lastEditDate":1574858325579,"ticketState":"Новый","ticketStateId":-1,"serviceId":2849,"syncMask":"PORTAL_ONLY","files":[{"id":4780,"name":"C:\\Users\\student\\Desktop\\Ogdanets\\Project\\UC01_task_create\\File1.txt"}],"location":"default location","address":"default location","categories":["Инженерия","Сантехника","Водонагреватели"],"category1":"Инженерия","category2":"Сантехника","category3":"Водонагреватели","hasAttachments":true,"openCommunications":0,"totalCommunications":0,"actions":[]},{"id":149477,"applicant":{"fullName":"Алексей Карчевский","userName":"master","email":"a.karchevski@pflb.ru","location":"142784, г.Москва, Киевское шоссе, 22-й км,\nБП ComCity, домовл.6, стр.1","phone":"8 (000) 123-45-67","mobilePhone":"8 (000) 123-45-67","id":106},"header":"Вода не нагревается","text":"Some text 4","createDate":1574858292414,"lastEditDate":1574858292419,"ticketState":"Новый","ticketStateId":-1,"serviceId":2850,"syncMask":"PORTAL_ONLY","files":[{"id":4779,"name":"C:\\Users\\student\\Desktop\\Ogdanets\\Project\\UC01_task_create\\File1.txt"}],"location":"default location","address":"default location","categories":["Инженерия","Сантехника","Водонагреватели"],"category1":"Инженерия","category2":"Сантехника","category3":"Водонагреватели","hasAttachments":true,"openCommunications":0,"totalCommunications":0,"actions":[]}],"last":false,"totalElements":302,"totalPages":31,"size":10,"number":0,"sort":[{"direction":"DESC","property":"id","ignoreCase":false,"nullHandling":"NATIVE","ascending":false,"descending":true}],"numberOfElements":10,"first":true}