{"content":[{"id":149291,"applicant":{"fullName":"Алексей Карчевский","userName":"master","email":"a.karchevski@pflb.ru","location":"142784, г.Москва, Киевское шоссе, 22-й км,\nБП ComCity, домовл.6, стр.1","phone":"8 (000) 123-45-67","mobilePhone":"8 (000) 123-45-67","id":106},"header":"Отсутствие уборки прилегающей территории","text":"Some action","createDate":1574694298327,"lastEditDate":1574694298332,"ticketState":"Новый","ticketStateId":-1,"serviceId":2782,"inventoryNumber":"000006","inventoryId":6,"syncMask":"PORTAL_ONLY","files":[{"id":4383,"name":"file.txt"}],"location":"Барклая 24","address":"Барклая 24","categories":["Экология","Уборка помещений и прилегающей территории","Уборка прилегающей территории"],"category1":"Экология","category2":"Уборка помещений и прилегающей территории","category3":"Уборка прилегающей территории","hasAttachments":true,"openCommunications":0,"totalCommunications":0,"actions":[]},{"id":149290,"applicant":{"fullName":"Алексей Карчевский","userName":"master","email":"a.karchevski@pflb.ru","location":"142784, г.Москва, Киевское шоссе, 22-й км,\nБП ComCity, домовл.6, стр.1","phone":"8 (000) 123-45-67","mobilePhone":"8 (000) 123-45-67","id":106},"director":{"fullName":"Васильев Павел1","userName":"director_1","email":"director@mail.com","location":"location","address":"152 Скотопрогонная ул. 13","phone":"+79778334486","mobilePhone":"8 (000) 123-45-67","workPhone":"+79778334486","organization":"organization","id":101122},"header":"Не работает морозильный Шкаф(указать какую температуру показывает)","text":"request custom text","createDate":1574694242644,"lastEditDate":1574694242654,"ticketState":"Новый","ticketStateId":-1,"serviceId":2980,"inventoryNumber":"777","inventoryId":11,"syncMask":"PORTAL_ONLY","files":[{"id":4518,"name":"C:\\Users\\student\\Documents\\mx\\LoadRunner\\XDesk\\files\\task_details.txt"}],"location":"152 Скотопрогонная ул. 13","address":"152 Скотопрогонная ул. 13","categories":["Технологическое оборудование","Холодильное оборудование","Холодильный Шкаф на Складе"],"category1":"Технологическое оборудование","category2":"Холодильное оборудование","category3":"Холодильный Шкаф на Складе","hasAttachments":true,"openCommunications":0,"totalCommunications":0,"actions":[]},{"id":149289,"applicant":{"fullName":"Алексей Карчевский","userName":"master","email":"a.karchevski@pflb.ru","location":"142784, г.Москва, Киевское шоссе, 22-й км,\nБП ComCity, домовл.6, стр.1","phone":"8 (000) 123-45-67","mobilePhone":"8 (000) 123-45-67","id":106},"header":"Сломана кнопка лифта","text":"request custom text","createDate":1574694224849,"lastEditDate":1574694224854,"ticketState":"Новый","ticketStateId":-1,"serviceId":2924,"inventoryNumber":"000010","inventoryId":10,"syncMask":"PORTAL_ONLY","files":[{"id":4517,"name":"C:\\Users\\student\\Documents\\mx\\LoadRunner\\XDesk\\files\\task_details.txt"}],"location":"Изумрудная 14","address":"Изумрудная 14","categories":["Технологическое оборудование","Подъемные и передвижные механизмы","Пассажирские лифты"],"category1":"Технологическое оборудование","category2":"Подъемные и передвижные механизмы","category3":"Пассажирские лифты","hasAttachments":true,"openCommunications":0,"totalCommunications":0,"actions":[]},{"id":149288,"applicant":{"fullName":"Алексей Карчевский","userName":"master","email":"a.karchevski@pflb.ru","location":"142784, г.Москва, Киевское шоссе, 22-й км,\nБП ComCity, домовл.6, стр.1","phone":"8 (000) 123-45-67","mobilePhone":"8 (000) 123-45-67","id":106},"header":"Отсутствие уборки прилегающей территории","text":"123321","createDate":1574694224343,"lastEditDate":1574694224347,"ticketState":"Новый","ticketStateId":-1,"serviceId":2782,"syncMask":"PORTAL_ONLY","location":"default location","address":"default location","categories":["Экология","Уборка помещений и прилегающей территории","Уборка прилегающей территории"],"category1":"Экология","category2":"Уборка помещений и прилегающей территории","category3":"Уборка прилегающей территории","openCommunications":0,"totalCommunications":0,"actions":[]},{"id":149287,"applicant":{"fullName":"Алексей Карчевский","userName":"master","email":"a.karchevski@pflb.ru","location":"142784, г.Москва, Киевское шоссе, 22-й км,\nБП ComCity, домовл.6, стр.1","phone":"8 (000) 123-45-67","mobilePhone":"8 (000) 123-45-67","id":106},"header":"Отсутствие уборки прилегающей территории","text":"12532ygads","createDate":1574694085644,"lastEditDate":1574694085650,"ticketState":"Новый","ticketStateId":-1,"serviceId":2782,"viewed":true,"syncMask":"PORTAL_ONLY","files":[{"id":4516,"name":"task details.txt"}],"location":"default location","address":"default location","categories":["Экология","Уборка помещений и прилегающей территории","Уборка прилегающей территории"],"category1":"Экология","category2":"Уборка помещений и прилегающей территории","category3":"Уборка прилегающей территории","hasAttachments":true,"openCommunications":0,"totalCommunications":0,"actions":[]},{"id":149286,"applicant":{"fullName":"Алексей Карчевский","userName":"master","email":"a.karchevski@pflb.ru","location":"142784, г.Москва, Киевское шоссе, 22-й км,\nБП ComCity, домовл.6, стр.1","phone":"8 (000) 123-45-67","mobilePhone":"8 (000) 123-45-67","id":106},"header":"Отсутствие уборки прилегающей территории","text":"213","createDate":1574694002191,"lastEditDate":1574694002198,"ticketState":"Новый","ticketStateId":-1,"serviceId":2782,"viewed":true,"syncMask":"PORTAL_ONLY","location":"default location","address":"default location","categories":["Экология","Уборка помещений и прилегающей территории","Уборка прилегающей территории"],"category1":"Экология","category2":"Уборка помещений и прилегающей территории","category3":"Уборка прилегающей территории","openCommunications":0,"totalCommunications":0,"actions":[]},{"id":149285,"applicant":{"fullName":"Алексей Карчевский","userName":"master","email":"a.karchevski@pflb.ru","location":"142784, г.Москва, Киевское шоссе, 22-й км,\nБП ComCity, домовл.6, стр.1","phone":"8 (000) 123-45-67","mobilePhone":"8 (000) 123-45-67","id":106},"header":"Отсутствие уборки прилегающей территории","text":"213","createDate":1574693997611,"lastEditDate":1574693997615,"ticketState":"Новый","ticketStateId":-1,"serviceId":2782,"syncMask":"PORTAL_ONLY","location":"default location","address":"default location","categories":["Экология","Уборка помещений и прилегающей территории","Уборка прилегающей территории"],"category1":"Экология","category2":"Уборка помещений и прилегающей территории","category3":"Уборка прилегающей территории","openCommunications":0,"totalCommunications":0,"actions":[]},{"id":149284,"applicant":{"fullName":"Алексей Карчевский","userName":"master","email":"a.karchevski@pflb.ru","location":"142784, г.Москва, Киевское шоссе, 22-й км,\nБП ComCity, домовл.6, стр.1","phone":"8 (000) 123-45-67","mobilePhone":"8 (000) 123-45-67","id":106},"header":"Снять /повесить акционный баннер","text":"IOS","createDate":1574693969723,"lastEditDate":1574693969728,"ticketState":"Новый","ticketStateId":-1,"serviceId":2977,"inventoryNumber":"000007","inventoryId":7,"syncMask":"PORTAL_ONLY","files":[{"id":4391,"name":"123.txt"}],"location":"default location","address":"default location","categories":["Технологическое оборудование","Холодильное оборудование","Холодильная пристенная горка"],"category1":"Технологическое оборудование","category2":"Холодильное оборудование","category3":"Холодильная пристенная горка","hasAttachments":true,"openCommunications":0,"totalCommunications":0,"actions":[]},{"id":149283,"applicant":{"fullName":"Алексей Карчевский","userName":"master","email":"a.karchevski@pflb.ru","location":"142784, г.Москва, Киевское шоссе, 22-й км,\nБП ComCity, домовл.6, стр.1","phone":"8 (000) 123-45-67","mobilePhone":"8 (000) 123-45-67","id":106},"header":"Снять /повесить акционный баннер","text":"IOS","createDate":1574693963620,"lastEditDate":1574693963625,"ticketState":"Новый","ticketStateId":-1,"serviceId":2985,"inventoryNumber":"000007","inventoryId":7,"syncMask":"PORTAL_ONLY","location":"256 Бинарная ул. 16","address":"256 Бинарная ул. 16","categories":["Технологическое оборудование","Холодильное оборудование","Ларь Бонета"],"category1":"Технологическое оборудование","category2":"Холодильное оборудование","category3":"Ларь Бонета","openCommunications":0,"totalCommunications":0,"actions":[]},{"id":149282,"applicant":{"fullName":"Алексей Карчевский","userName":"master","email":"a.karchevski@pflb.ru","location":"142784, г.Москва, Киевское шоссе, 22-й км,\nБП ComCity, домовл.6, стр.1","phone":"8 (000) 123-45-67","mobilePhone":"8 (000) 123-45-67","id":106},"header":"Снять /повесить акционный баннер","text":"IOS","createDate":1574693960013,"lastEditDate":1574693960017,"ticketState":"Новый","ticketStateId":-1,"serviceId":2957,"inventoryNumber":"000007","inventoryId":7,"syncMask":"PORTAL_ONLY","location":"default location","address":"default location","categories":["Технологическое оборудование","Холодильное оборудование","Холодильная камера"],"category1":"Технологическое оборудование","category2":"Холодильное оборудование","category3":"Холодильная камера","openCommunications":0,"totalCommunications":0,"actions":[]}],"last":false,"totalElements":126,"totalPages":13,"size":10,"number":0,"sort":[{"direction":"DESC","property":"id","ignoreCase":false,"nullHandling":"NATIVE","ascending":false,"descending":true}],"numberOfElements":10,"first":true}