{"content":[{"id":149513,"applicant":{"fullName":"Алексей Карчевский","userName":"master","email":"a.karchevski@pflb.ru","location":"142784, г.Москва, Киевское шоссе, 22-й км,\nБП ComCity, домовл.6, стр.1","phone":"8 (000) 123-45-67","mobilePhone":"8 (000) 123-45-67","id":106},"header":"Не крутится транспортёрная лента","text":"Agalarov.A.1489912620","createDate":1574925459584,"lastEditDate":1574925459634,"ticketState":"Новый","ticketStateId":-1,"serviceId":2934,"inventoryNumber":"000009","inventoryId":9,"syncMask":"PORTAL_ONLY","files":[{"id":4387,"name":"test_text_file.txt"}],"location":"Изумрудная 14","address":"Изумрудная 14","categories":["Технологическое оборудование","Климатическое оборудование","Кондиционер"],"category1":"Технологическое оборудование","category2":"Климатическое оборудование","category3":"Кондиционер","hasAttachments":true,"openCommunications":0,"totalCommunications":0,"actions":[]},{"id":149512,"applicant":{"fullName":"Алексей Карчевский","userName":"master","email":"a.karchevski@pflb.ru","location":"142784, г.Москва, Киевское шоссе, 22-й км,\nБП ComCity, домовл.6, стр.1","phone":"8 (000) 123-45-67","mobilePhone":"8 (000) 123-45-67","id":106},"director":{"fullName":"Васильев Павел1","userName":"director_1","email":"director@mail.com","location":"location","address":"152 Скотопрогонная ул. 13","phone":"+79778334486","mobilePhone":"8 (000) 123-45-67","workPhone":"+79778334486","organization":"organization","id":101122},"header":"Не крутится транспортёрная лента","text":"Agalarov.A.1979681873","createDate":1574925451760,"lastEditDate":1574925451764,"ticketState":"Новый","ticketStateId":-1,"serviceId":2895,"syncMask":"PORTAL_ONLY","location":"152 Скотопрогонная ул. 13","address":"152 Скотопрогонная ул. 13","categories":["Технологическое оборудование","Тепловое оборудование","Расстойная камера"],"category1":"Технологическое оборудование","category2":"Тепловое оборудование","category3":"Расстойная камера","openCommunications":0,"totalCommunications":0,"actions":[]},{"id":149511,"applicant":{"fullName":"Алексей Карчевский","userName":"master","email":"a.karchevski@pflb.ru","location":"142784, г.Москва, Киевское шоссе, 22-й км,\nБП ComCity, домовл.6, стр.1","phone":"8 (000) 123-45-67","mobilePhone":"8 (000) 123-45-67","id":106},"header":"Не крутится транспортёрная лента","text":"Agalarov.A.1049464333","createDate":1574925440576,"lastEditDate":1574925440581,"ticketState":"Новый","ticketStateId":-1,"serviceId":2912,"inventoryNumber":"777","inventoryId":11,"syncMask":"PORTAL_ONLY","location":"Изумрудная 14","address":"Изумрудная 14","categories":["Технологическое оборудование","Подъемные и передвижные механизмы","Эскалатор, лифт, подъемник"],"category1":"Технологическое оборудование","category2":"Подъемные и передвижные механизмы","category3":"Эскалатор, лифт, подъемник","openCommunications":0,"totalCommunications":0,"actions":[]},{"id":149510,"applicant":{"fullName":"Алексей Карчевский","userName":"master","email":"a.karchevski@pflb.ru","location":"142784, г.Москва, Киевское шоссе, 22-й км,\nБП ComCity, домовл.6, стр.1","phone":"8 (000) 123-45-67","mobilePhone":"8 (000) 123-45-67","id":106},"header":"Не крутится транспортёрная лента","text":"Agalarov.A.1194684523","createDate":1574925426315,"lastEditDate":1574925426322,"ticketState":"Новый","ticketStateId":-1,"serviceId":2802,"inventoryNumber":"000007","inventoryId":7,"syncMask":"PORTAL_ONLY","location":"Барклая 24","address":"Барклая 24","categories":["Экология","Уборка помещений и прилегающей территории","Уборка помещений"],"category1":"Экология","category2":"Уборка помещений и прилегающей территории","category3":"Уборка помещений","openCommunications":0,"totalCommunications":0,"actions":[]},{"id":149509,"applicant":{"fullName":"Алексей Карчевский","userName":"master","email":"a.karchevski@pflb.ru","location":"142784, г.Москва, Киевское шоссе, 22-й км,\nБП ComCity, домовл.6, стр.1","phone":"8 (000) 123-45-67","mobilePhone":"8 (000) 123-45-67","id":106},"header":"Не крутится транспортёрная лента","text":"Agalarov.A.1293212154","createDate":1574925412924,"lastEditDate":1574925413317,"ticketState":"Новый","ticketStateId":-1,"serviceId":2894,"syncMask":"PORTAL_ONLY","location":"default location","address":"default location","categories":["Технологическое оборудование","Тепловое оборудование","Печь для выпечки"],"category1":"Технологическое оборудование","category2":"Тепловое оборудование","category3":"Печь для выпечки","openCommunications":0,"totalCommunications":0,"actions":[]},{"id":149508,"applicant":{"fullName":"Алексей Карчевский","userName":"master","email":"a.karchevski@pflb.ru","location":"142784, г.Москва, Киевское шоссе, 22-й км,\nБП ComCity, домовл.6, стр.1","phone":"8 (000) 123-45-67","mobilePhone":"8 (000) 123-45-67","id":106},"header":"Не работает счётчик купюр","text":"Some text 3","createDate":1574869236938,"lastEditDate":1574869236944,"ticketState":"Выполняется","ticketStateId":1,"serviceId":2902,"syncMask":"PORTAL_ONLY","files":[{"id":4824,"name":"C:\\Users\\student\\Desktop\\Ogdanets\\Project\\UC01_task_create\\File1.txt"}],"location":"default location","address":"default location","taskId":149508,"taskState":"Решена","taskStateId":2,"categories":["Технологическое оборудование","Банковское оборудование","Счётчик купюр"],"category1":"Технологическое оборудование","category2":"Банковское оборудование","category3":"Счётчик купюр","canBeCanceled":false,"hasAttachments":true,"openCommunications":0,"totalCommunications":0,"actions":["solveTicket","cancelTicket","inventoryNumberChange","slaDateChange","comment"]},{"id":149507,"applicant":{"fullName":"Алексей Карчевский","userName":"master","email":"a.karchevski@pflb.ru","location":"142784, г.Москва, Киевское шоссе, 22-й км,\nБП ComCity, домовл.6, стр.1","phone":"8 (000) 123-45-67","mobilePhone":"8 (000) 123-45-67","id":106},"director":{"fullName":"Васильев Павел1","userName":"director_1","email":"director@mail.com","location":"location","address":"152 Скотопрогонная ул. 13","phone":"+79778334486","mobilePhone":"8 (000) 123-45-67","workPhone":"+79778334486","organization":"organization","id":101122},"header":"Сломана кнопка лифта","text":"Some text 2","createDate":1574869227034,"lastEditDate":1574869227040,"ticketState":"Выполняется","ticketStateId":1,"serviceId":2924,"syncMask":"PORTAL_ONLY","files":[{"id":4823,"name":"C:\\Users\\student\\Desktop\\Ogdanets\\Project\\UC01_task_create\\File1.txt"}],"location":"152 Скотопрогонная ул. 13","address":"152 Скотопрогонная ул. 13","taskId":149507,"taskState":"Решена","taskStateId":2,"categories":["Технологическое оборудование","Подъемные и передвижные механизмы","Пассажирские лифты"],"category1":"Технологическое оборудование","category2":"Подъемные и передвижные механизмы","category3":"Пассажирские лифты","canBeCanceled":false,"hasAttachments":true,"openCommunications":0,"totalCommunications":0,"actions":["solveTicket","cancelTicket","inventoryNumberChange","slaDateChange","comment"]},{"id":149506,"applicant":{"fullName":"Алексей Карчевский","userName":"master","email":"a.karchevski@pflb.ru","location":"142784, г.Москва, Киевское шоссе, 22-й км,\nБП ComCity, домовл.6, стр.1","phone":"8 (000) 123-45-67","mobilePhone":"8 (000) 123-45-67","id":106},"director":{"fullName":"Васильев Павел1","userName":"director_1","email":"director@mail.com","location":"location","address":"152 Скотопрогонная ул. 13","phone":"+79778334486","mobilePhone":"8 (000) 123-45-67","workPhone":"+79778334486","organization":"organization","id":101122},"header":"Шатаются стойки ограждения","text":"Some text 1","createDate":1574869216443,"lastEditDate":1574869216449,"ticketState":"Выполняется","ticketStateId":1,"serviceId":2886,"syncMask":"PORTAL_ONLY","files":[{"id":4822,"name":"C:\\Users\\student\\Desktop\\Ogdanets\\Project\\UC01_task_create\\File1.txt"}],"location":"152 Скотопрогонная ул. 13","address":"152 Скотопрогонная ул. 13","taskId":149506,"taskState":"Решена","taskStateId":2,"categories":["Технологическое оборудование","Кассовый стол и гидаж","Турникеты, гидаж"],"category1":"Технологическое оборудование","category2":"Кассовый стол и гидаж","category3":"Турникеты, гидаж","canBeCanceled":false,"hasAttachments":true,"openCommunications":0,"totalCommunications":0,"actions":["solveTicket","cancelTicket","inventoryNumberChange","slaDateChange","comment"]},{"id":149505,"applicant":{"fullName":"Алексей Карчевский","userName":"master","email":"a.karchevski@pflb.ru","location":"142784, г.Москва, Киевское шоссе, 22-й км,\nБП ComCity, домовл.6, стр.1","phone":"8 (000) 123-45-67","mobilePhone":"8 (000) 123-45-67","id":106},"director":{"fullName":"Васильев Павел1","userName":"director_1","email":"director@mail.com","location":"location","address":"152 Скотопрогонная ул. 13","phone":"+79778334486","mobilePhone":"8 (000) 123-45-67","workPhone":"+79778334486","organization":"organization","id":101122},"header":"Замена металического фриза","text":"Some text 4","createDate":1574868705212,"lastEditDate":1574868705217,"ticketState":"Выполняется","ticketStateId":1,"serviceId":2872,"syncMask":"PORTAL_ONLY","files":[{"id":4821,"name":"C:\\Users\\student\\Desktop\\Ogdanets\\Project\\UC01_task_create\\File1.txt"}],"location":"152 Скотопрогонная ул. 13","address":"152 Скотопрогонная ул. 13","taskId":149505,"taskState":"Решена","taskStateId":2,"categories":["Инженерия","Части здания","Ремонт фасада (обшивка стен, плитка, штукатурка)"],"category1":"Инженерия","category2":"Части здания","category3":"Ремонт фасада (обшивка стен, плитка, штукатурка)","canBeCanceled":false,"hasAttachments":true,"openCommunications":0,"totalCommunications":0,"actions":["solveTicket","cancelTicket","inventoryNumberChange","slaDateChange","comment"]},{"id":149504,"applicant":{"fullName":"Алексей Карчевский","userName":"master","email":"a.karchevski@pflb.ru","location":"142784, г.Москва, Киевское шоссе, 22-й км,\nБП ComCity, домовл.6, стр.1","phone":"8 (000) 123-45-67","mobilePhone":"8 (000) 123-45-67","id":106},"director":{"fullName":"Васильев Павел1","userName":"director_1","email":"director@mail.com","location":"location","address":"152 Скотопрогонная ул. 13","phone":"+79778334486","mobilePhone":"8 (000) 123-45-67","workPhone":"+79778334486","organization":"organization","id":101122},"header":"Не работает замок (нельзя открыть)","text":"Some text 1","createDate":1574868694306,"lastEditDate":1574868694312,"ticketState":"Выполняется","ticketStateId":1,"serviceId":3004,"syncMask":"PORTAL_ONLY","files":[{"id":4820,"name":"C:\\Users\\student\\Desktop\\Ogdanets\\Project\\UC01_task_create\\File1.txt"}],"location":"152 Скотопрогонная ул. 13","address":"152 Скотопрогонная ул. 13","taskId":149504,"taskState":"Решена","taskStateId":2,"categories":["Технологическое оборудование","Банковское оборудование","Сейфы"],"category1":"Технологическое оборудование","category2":"Банковское оборудование","category3":"Сейфы","canBeCanceled":false,"hasAttachments":true,"openCommunications":0,"totalCommunications":0,"actions":["solveTicket","cancelTicket","inventoryNumberChange","slaDateChange","comment"]}],"last":false,"totalElements":321,"totalPages":33,"size":10,"number":0,"sort":[{"direction":"DESC","property":"id","ignoreCase":false,"nullHandling":"NATIVE","ascending":false,"descending":true}],"numberOfElements":10,"first":true}