{"content":[{"id":149889,"applicant":{"fullName":"Алексей Карчевский","userName":"master","email":"a.karchevski@pflb.ru","location":"142784, г.Москва, Киевское шоссе, 22-й км,\nБП ComCity, домовл.6, стр.1","phone":"8 (000) 123-45-67","mobilePhone":"8 (000) 123-45-67","id":106},"header":"Не работают ВСЕ Пристенные ХОЛОДИЛЬНИКИ(указать какую температуру показывает)","text":"testdescriptiontest","createDate":1575450144773,"lastEditDate":1575450144777,"ticketState":"Новый","ticketStateId":-1,"serviceId":2973,"syncMask":"PORTAL_ONLY","location":"default location","address":"default location","categories":["Технологическое оборудование","Холодильное оборудование","Холодильная пристенная горка"],"category1":"Технологическое оборудование","category2":"Холодильное оборудование","category3":"Холодильная пристенная горка","openCommunications":0,"totalCommunications":0,"actions":[]},{"id":149888,"applicant":{"fullName":"Алексей Карчевский","userName":"master","email":"a.karchevski@pflb.ru","location":"142784, г.Москва, Киевское шоссе, 22-й км,\nБП ComCity, домовл.6, стр.1","phone":"8 (000) 123-45-67","mobilePhone":"8 (000) 123-45-67","id":106},"header":"Уничтожение муравьев","text":"testdescriptiontest","createDate":1575449985799,"lastEditDate":1575449985828,"ticketState":"Новый","ticketStateId":-1,"serviceId":2809,"inventoryNumber":"000006","inventoryId":6,"syncMask":"PORTAL_ONLY","location":"Барклая 24","address":"Барклая 24","categories":["Экология","Дератизация, Дезинсекция, Дезинфекция","Уничтожение грызунов и насекомых, Дезинфекция"],"category1":"Экология","category2":"Дератизация, Дезинсекция, Дезинфекция","category3":"Уничтожение грызунов и насекомых, Дезинфекция","openCommunications":0,"totalCommunications":0,"actions":[]},{"id":149884,"applicant":{"fullName":"Алексей Карчевский","userName":"master","email":"a.karchevski@pflb.ru","location":"142784, г.Москва, Киевское шоссе, 22-й км,\nБП ComCity, домовл.6, стр.1","phone":"8 (000) 123-45-67","mobilePhone":"8 (000) 123-45-67","id":106},"director":{"fullName":"Васильев Павел1","userName":"director_1","email":"director@mail.com","location":"location","address":"152 Скотопрогонная ул. 13","phone":"+79778334486","mobilePhone":"8 (000) 123-45-67","workPhone":"+79778334486","organization":"organization","id":101122},"header":"Сломалась лицевая поверхность буквы","text":"MX request","createDate":1575447406351,"lastEditDate":1575447406382,"ticketState":"Выполняется","ticketStateId":1,"serviceId":2996,"syncMask":"PORTAL_ONLY","location":"152 Скотопрогонная ул. 13","address":"152 Скотопрогонная ул. 13","taskId":149884,"taskState":"Выполняется","taskStateId":1,"categories":["Внешняя и внутренняя реклама","Наружная световая вывеска \"\"Пятерочка\"\""],"category1":"Внешняя и внутренняя реклама","category2":"Наружная световая вывеска \"\"Пятерочка\"\"","canBeCanceled":false,"openCommunications":0,"totalCommunications":0,"actions":["assignContractor","solveTicket","cancelTicket","cancelTask","inventoryNumberChange","slaDateChange","specialistDateChange","comment"]},{"id":149881,"applicant":{"fullName":"Алексей Карчевский","userName":"master","email":"a.karchevski@pflb.ru","location":"142784, г.Москва, Киевское шоссе, 22-й км,\nБП ComCity, домовл.6, стр.1","phone":"8 (000) 123-45-67","mobilePhone":"8 (000) 123-45-67","id":106},"director":{"fullName":"Васильев Павел1","userName":"director_1","email":"director@mail.com","location":"location","address":"152 Скотопрогонная ул. 13","phone":"+79778334486","mobilePhone":"8 (000) 123-45-67","workPhone":"+79778334486","organization":"organization","id":101122},"header":"Течь из корпуса прибора","text":"MX request","createDate":1575447384582,"lastEditDate":1575447384586,"ticketState":"Выполняется","ticketStateId":1,"serviceId":2820,"syncMask":"PORTAL_ONLY","location":"152 Скотопрогонная ул. 13","address":"152 Скотопрогонная ул. 13","taskId":149881,"taskState":"Выполняется","taskStateId":1,"categories":["Инженерия","Измерительные приборы","Счетчик воды"],"category1":"Инженерия","category2":"Измерительные приборы","category3":"Счетчик воды","canBeCanceled":false,"openCommunications":0,"totalCommunications":0,"actions":["assignContractor","solveTicket","cancelTicket","cancelTask","inventoryNumberChange","slaDateChange","specialistDateChange","comment"]},{"id":149877,"applicant":{"fullName":"Алексей Карчевский","userName":"master","email":"a.karchevski@pflb.ru","location":"142784, г.Москва, Киевское шоссе, 22-й км,\nБП ComCity, домовл.6, стр.1","phone":"8 (000) 123-45-67","mobilePhone":"8 (000) 123-45-67","id":106},"director":{"fullName":"Васильев Павел1","userName":"director_1","email":"director@mail.com","location":"location","address":"152 Скотопрогонная ул. 13","phone":"+79778334486","mobilePhone":"8 (000) 123-45-67","workPhone":"+79778334486","organization":"organization","id":101122},"header":"Не работает Линия ХОЛОДИЛЬНИКОВ(указать какую температуру показывает)","text":"MX request","createDate":1575447025920,"lastEditDate":1575447025924,"ticketState":"Выполняется","ticketStateId":1,"serviceId":2972,"syncMask":"PORTAL_ONLY","location":"152 Скотопрогонная ул. 13","address":"152 Скотопрогонная ул. 13","taskId":149877,"taskState":"Выполняется","taskStateId":1,"categories":["Технологическое оборудование","Холодильное оборудование","Холодильная пристенная горка"],"category1":"Технологическое оборудование","category2":"Холодильное оборудование","category3":"Холодильная пристенная горка","canBeCanceled":false,"openCommunications":0,"totalCommunications":0,"actions":["assignContractor","solveTicket","cancelTicket","cancelTask","inventoryNumberChange","slaDateChange","specialistDateChange","comment"]},{"id":149871,"applicant":{"fullName":"Алексей Карчевский","userName":"master","email":"a.karchevski@pflb.ru","location":"142784, г.Москва, Киевское шоссе, 22-й км,\nБП ComCity, домовл.6, стр.1","phone":"8 (000) 123-45-67","mobilePhone":"8 (000) 123-45-67","id":106},"header":"Ключ сломан в замке (сейф Закрыт)","text":"Ogdanets text 1","createDate":1575385695180,"lastEditDate":1575385695184,"ticketState":"Новый","ticketStateId":-1,"serviceId":3001,"syncMask":"PORTAL_ONLY","location":"Изумрудная 14","address":"Изумрудная 14","categories":["Технологическое оборудование","Банковское оборудование","Сейфы"],"category1":"Технологическое оборудование","category2":"Банковское оборудование","category3":"Сейфы","openCommunications":0,"totalCommunications":0,"actions":[]},{"id":149869,"applicant":{"fullName":"Алексей Карчевский","userName":"master","email":"a.karchevski@pflb.ru","location":"142784, г.Москва, Киевское шоссе, 22-й км,\nБП ComCity, домовл.6, стр.1","phone":"8 (000) 123-45-67","mobilePhone":"8 (000) 123-45-67","id":106},"header":"Отсутствие замены ковровых покрытий (не приезжает машина)","text":"Ogdanets text 3","createDate":1575378991764,"lastEditDate":1575378991768,"ticketState":"Новый","ticketStateId":-1,"serviceId":2815,"syncMask":"PORTAL_ONLY","location":"default location","address":"default location","categories":["Экология","Замена ковриков","Замена ковриков"],"category1":"Экология","category2":"Замена ковриков","category3":"Замена ковриков","openCommunications":0,"totalCommunications":0,"actions":[]},{"id":149868,"applicant":{"fullName":"Алексей Карчевский","userName":"master","email":"a.karchevski@pflb.ru","location":"142784, г.Москва, Киевское шоссе, 22-й км,\nБП ComCity, домовл.6, стр.1","phone":"8 (000) 123-45-67","mobilePhone":"8 (000) 123-45-67","id":106},"director":{"fullName":"Васильев Павел1","userName":"director_1","email":"director@mail.com","location":"location","address":"152 Скотопрогонная ул. 13","phone":"+79778334486","mobilePhone":"8 (000) 123-45-67","workPhone":"+79778334486","organization":"organization","id":101122},"header":"Требуется дополнительный вывоз вторсырья","text":"Ogdanets text 2","createDate":1575378771585,"lastEditDate":1575378771589,"ticketState":"Новый","ticketStateId":-1,"serviceId":2812,"syncMask":"PORTAL_ONLY","location":"152 Скотопрогонная ул. 13","address":"152 Скотопрогонная ул. 13","categories":["Экология","Вторсырье","Заказ дополнительного вывоза вторсырья"],"category1":"Экология","category2":"Вторсырье","category3":"Заказ дополнительного вывоза вторсырья","openCommunications":0,"totalCommunications":0,"actions":[]},{"id":149864,"applicant":{"fullName":"Алексей Карчевский","userName":"master","email":"a.karchevski@pflb.ru","location":"142784, г.Москва, Киевское шоссе, 22-й км,\nБП ComCity, домовл.6, стр.1","phone":"8 (000) 123-45-67","mobilePhone":"8 (000) 123-45-67","id":106},"contractor":{"id":9,"name":"2-Ремонт","organization":"Холодильное оборудование","company":"YYY","active":true},"header":"Разбито стекло на двери","text":"DTelekhin test description test description test description","createDate":1575298423857,"lastEditDate":1575298423860,"ticketState":"Выполняется","ticketStateId":1,"serviceId":2948,"syncMask":"PORTAL_ONLY","location":"256 Бинарная ул. 16","address":"256 Бинарная ул. 16","taskId":149864,"taskState":"Выполняется","taskStateId":1,"categories":["Технологическое оборудование","Автоматические  ворота и двери","Автоматические двери на входе"],"category1":"Технологическое оборудование","category2":"Автоматические  ворота и двери","category3":"Автоматические двери на входе","canBeCanceled":false,"openCommunications":0,"totalCommunications":0,"actions":["assignContractor","solveTicket","cancelTicket","cancelTask","inventoryNumberChange","slaDateChange","specialistDateChange","comment"]},{"id":149863,"applicant":{"fullName":"Алексей Карчевский","userName":"master","email":"a.karchevski@pflb.ru","location":"142784, г.Москва, Киевское шоссе, 22-й км,\nБП ComCity, домовл.6, стр.1","phone":"8 (000) 123-45-67","mobilePhone":"8 (000) 123-45-67","id":106},"contractor":{"id":9,"name":"2-Ремонт","organization":"Холодильное оборудование","company":"YYY","active":true},"header":"Течь батареи","text":"DTelekhin test description test description","createDate":1575298415116,"lastEditDate":1575298415120,"ticketState":"Выполняется","ticketStateId":1,"serviceId":2856,"syncMask":"PORTAL_ONLY","location":"Барклая 24","address":"Барклая 24","taskId":149863,"taskState":"Выполняется","taskStateId":1,"categories":["Инженерия","Отопление","Прорыв, протечка в системе отопления"],"category1":"Инженерия","category2":"Отопление","category3":"Прорыв, протечка в системе отопления","canBeCanceled":false,"openCommunications":0,"totalCommunications":0,"actions":["assignContractor","solveTicket","cancelTicket","cancelTask","inventoryNumberChange","slaDateChange","specialistDateChange","comment"]}],"last":false,"totalElements":422,"totalPages":43,"size":10,"number":0,"sort":[{"direction":"DESC","property":"id","ignoreCase":false,"nullHandling":"NATIVE","ascending":false,"descending":true}],"numberOfElements":10,"first":true}