{"content":[{"id":150476,"parentId":150476,"externalId":"TSK_1800000","header":"Ключ сломан в замке (сейф Закрыт)","text":"testdescriptiontest","priority":"Низкий","createDate":1511190000000,"lastEditDate":1575469631644,"state":"Выполняется","stateId":1,"viewed":true,"syncMask":"PORTAL_ONLY","isSpecialistDate":false,"ticketState":"Выполняется","ticketStateId":1,"applicant":{"fullName":"Алексей Карчевский","userName":"master","email":"a.karchevski@pflb.ru","location":"142784, г.Москва, Киевское шоссе, 22-й км,\nБП ComCity, домовл.6, стр.1","phone":"8 (000) 123-45-67","mobilePhone":"8 (000) 123-45-67","id":106},"contractor":{"id":9,"name":"2-Ремонт","organization":"Холодильное оборудование","company":"YYY","active":true},"categories":["Технологическое оборудование","Банковское оборудование","Сейфы"],"category1":"Технологическое оборудование","category2":"Банковское оборудование","category3":"Сейфы","location":"default location","address":"default location","actions":["assignContractor","solveTicket","cancelTicket","cancelTask","inventoryNumberChange","slaDateChange","specialistDateChange","comment"]},{"id":150475,"parentId":150475,"externalId":"TSK_1800000","header":"Ключ сломан в замке (сейф Открыт)","text":"testdescriptiontest","priority":"Низкий","createDate":1511190000000,"lastEditDate":1575469629575,"state":"Выполняется","stateId":1,"viewed":true,"syncMask":"PORTAL_ONLY","isSpecialistDate":false,"ticketState":"Выполняется","ticketStateId":1,"applicant":{"fullName":"Алексей Карчевский","userName":"master","email":"a.karchevski@pflb.ru","location":"142784, г.Москва, Киевское шоссе, 22-й км,\nБП ComCity, домовл.6, стр.1","phone":"8 (000) 123-45-67","mobilePhone":"8 (000) 123-45-67","id":106},"contractor":{"id":9,"name":"2-Ремонт","organization":"Холодильное оборудование","company":"YYY","active":true},"categories":["Технологическое оборудование","Банковское оборудование","Сейфы"],"category1":"Технологическое оборудование","category2":"Банковское оборудование","category3":"Сейфы","location":"default location","address":"default location","actions":["assignContractor","solveTicket","cancelTicket","cancelTask","inventoryNumberChange","slaDateChange","specialistDateChange","comment"]},{"id":150474,"parentId":150474,"externalId":"TSK_1800000","header":"Нет вывоза ТБО","text":"testdescriptiontest","priority":"Низкий","createDate":1511190000000,"lastEditDate":1575469621391,"state":"Выполняется","stateId":1,"viewed":true,"syncMask":"PORTAL_ONLY","isSpecialistDate":false,"ticketState":"Выполняется","ticketStateId":1,"applicant":{"fullName":"Алексей Карчевский","userName":"master","email":"a.karchevski@pflb.ru","location":"142784, г.Москва, Киевское шоссе, 22-й км,\nБП ComCity, домовл.6, стр.1","phone":"8 (000) 123-45-67","mobilePhone":"8 (000) 123-45-67","id":106},"contractor":{"id":9,"name":"2-Ремонт","organization":"Холодильное оборудование","company":"YYY","active":true},"categories":["Экология","Вывоз мусора","Нарушение графика вывоза мусора"],"category1":"Экология","category2":"Вывоз мусора","category3":"Нарушение графика вывоза мусора","location":"default location","address":"default location","actions":["assignContractor","solveTicket","cancelTicket","cancelTask","inventoryNumberChange","slaDateChange","specialistDateChange","comment"]},{"id":150473,"parentId":150473,"externalId":"TSK_1800000","header":"Необходимо оттаить Шкаф(указать количество)","text":"testdescriptiontest","priority":"Низкий","createDate":1511190000000,"lastEditDate":1575469619305,"state":"Выполняется","stateId":1,"viewed":true,"syncMask":"PORTAL_ONLY","isSpecialistDate":false,"ticketState":"Выполняется","ticketStateId":1,"applicant":{"fullName":"Алексей Карчевский","userName":"master","email":"a.karchevski@pflb.ru","location":"142784, г.Москва, Киевское шоссе, 22-й км,\nБП ComCity, домовл.6, стр.1","phone":"8 (000) 123-45-67","mobilePhone":"8 (000) 123-45-67","id":106},"contractor":{"id":9,"name":"2-Ремонт","organization":"Холодильное оборудование","company":"YYY","active":true},"categories":["Технологическое оборудование","Холодильное оборудование","Холодильный Шкаф на Складе"],"category1":"Технологическое оборудование","category2":"Холодильное оборудование","category3":"Холодильный Шкаф на Складе","location":"default location","address":"default location","actions":["assignContractor","solveTicket","cancelTicket","cancelTask","inventoryNumberChange","slaDateChange","specialistDateChange","comment"]},{"id":150471,"parentId":150471,"externalId":"TSK_1800000","header":"Повреждение металлоконструкции поручней(механическое, корозия металла)","text":"testdescriptiontest","priority":"Низкий","createDate":1511190000000,"lastEditDate":1575469611598,"state":"Выполняется","stateId":1,"syncMask":"PORTAL_ONLY","isSpecialistDate":false,"ticketState":"Выполняется","ticketStateId":1,"inventoryNumber":"000007","applicant":{"fullName":"Алексей Карчевский","userName":"master","email":"a.karchevski@pflb.ru","location":"142784, г.Москва, Киевское шоссе, 22-й км,\nБП ComCity, домовл.6, стр.1","phone":"8 (000) 123-45-67","mobilePhone":"8 (000) 123-45-67","id":106},"contractor":{"id":9,"name":"2-Ремонт","organization":"Холодильное оборудование","company":"YYY","active":true},"categories":["Инженерия","Части здания","Входная группа (ступени, пандус, поручни)"],"category1":"Инженерия","category2":"Части здания","category3":"Входная группа (ступени, пандус, поручни)","location":"Барклая 24","address":"Барклая 24","actions":["assignContractor","solveTicket","cancelTicket","cancelTask","inventoryNumberChange","slaDateChange","specialistDateChange","comment"]},{"id":150470,"parentId":150470,"externalId":"TSK_1800000","header":"Сломана защита сканера","text":"testdescriptiontest","priority":"Низкий","createDate":1511190000000,"lastEditDate":1575469608882,"state":"Выполняется","stateId":1,"viewed":true,"syncMask":"PORTAL_ONLY","isSpecialistDate":false,"ticketState":"Выполняется","ticketStateId":1,"applicant":{"fullName":"Алексей Карчевский","userName":"master","email":"a.karchevski@pflb.ru","location":"142784, г.Москва, Киевское шоссе, 22-й км,\nБП ComCity, домовл.6, стр.1","phone":"8 (000) 123-45-67","mobilePhone":"8 (000) 123-45-67","id":106},"director":{"fullName":"Васильев Павел1","userName":"director_1","email":"director@mail.com","location":"location","address":"152 Скотопрогонная ул. 13","phone":"+79778334486","mobilePhone":"8 (000) 123-45-67","workPhone":"+79778334486","organization":"organization","id":101122},"contractor":{"id":9,"name":"2-Ремонт","organization":"Холодильное оборудование","company":"YYY","active":true},"categories":["Технологическое оборудование","Кассовый стол и гидаж","Кассовый стол (педаль, лента транспортера)"],"category1":"Технологическое оборудование","category2":"Кассовый стол и гидаж","category3":"Кассовый стол (педаль, лента транспортера)","location":"152 Скотопрогонная ул. 13","address":"152 Скотопрогонная ул. 13","actions":["assignContractor","solveTicket","cancelTicket","cancelTask","inventoryNumberChange","slaDateChange","specialistDateChange","comment"]},{"id":150469,"parentId":150469,"externalId":"TSK_1800000","header":"Потеряли все ключи","text":"testdescriptiontest","priority":"Низкий","createDate":1511190000000,"lastEditDate":1575469600932,"state":"Выполняется","stateId":1,"viewed":true,"syncMask":"PORTAL_ONLY","isSpecialistDate":false,"ticketState":"Выполняется","ticketStateId":1,"inventoryNumber":"000007","applicant":{"fullName":"Алексей Карчевский","userName":"master","email":"a.karchevski@pflb.ru","location":"142784, г.Москва, Киевское шоссе, 22-й км,\nБП ComCity, домовл.6, стр.1","phone":"8 (000) 123-45-67","mobilePhone":"8 (000) 123-45-67","id":106},"contractor":{"id":9,"name":"2-Ремонт","organization":"Холодильное оборудование","company":"YYY","active":true},"categories":["Технологическое оборудование","Банковское оборудование","Сейфы"],"category1":"Технологическое оборудование","category2":"Банковское оборудование","category3":"Сейфы","location":"Барклая 24","address":"Барклая 24","actions":["assignContractor","solveTicket","cancelTicket","cancelTask","inventoryNumberChange","slaDateChange","specialistDateChange","comment"]},{"id":150468,"parentId":150468,"externalId":"TSK_1800000","header":"Ключ сломан в замке (сейф Открыт)","text":"testdescriptiontest","priority":"Низкий","createDate":1511190000000,"lastEditDate":1575469598576,"state":"Выполняется","stateId":1,"viewed":true,"syncMask":"PORTAL_ONLY","isSpecialistDate":false,"ticketState":"Выполняется","ticketStateId":1,"inventoryNumber":"000007","applicant":{"fullName":"Алексей Карчевский","userName":"master","email":"a.karchevski@pflb.ru","location":"142784, г.Москва, Киевское шоссе, 22-й км,\nБП ComCity, домовл.6, стр.1","phone":"8 (000) 123-45-67","mobilePhone":"8 (000) 123-45-67","id":106},"contractor":{"id":9,"name":"2-Ремонт","organization":"Холодильное оборудование","company":"YYY","active":true},"categories":["Технологическое оборудование","Банковское оборудование","Сейфы"],"category1":"Технологическое оборудование","category2":"Банковское оборудование","category3":"Сейфы","location":"Барклая 24","address":"Барклая 24","actions":["assignContractor","solveTicket","cancelTicket","cancelTask","inventoryNumberChange","slaDateChange","specialistDateChange","comment"]},{"id":150463,"parentId":150463,"externalId":"TSK_1800000","header":"Нарушено красочное покрытие поручней","text":"testdescriptiontest","priority":"Низкий","createDate":1511190000000,"lastEditDate":1575469388777,"state":"Выполняется","stateId":1,"viewed":true,"syncMask":"PORTAL_ONLY","isSpecialistDate":false,"ticketState":"Выполняется","ticketStateId":1,"applicant":{"fullName":"Алексей Карчевский","userName":"master","email":"a.karchevski@pflb.ru","location":"142784, г.Москва, Киевское шоссе, 22-й км,\nБП ComCity, домовл.6, стр.1","phone":"8 (000) 123-45-67","mobilePhone":"8 (000) 123-45-67","id":106},"contractor":{"id":9,"name":"2-Ремонт","organization":"Холодильное оборудование","company":"YYY","active":true},"categories":["Инженерия","Части здания","Входная группа (ступени, пандус, поручни)"],"category1":"Инженерия","category2":"Части здания","category3":"Входная группа (ступени, пандус, поручни)","location":"default location","address":"default location","actions":["assignContractor","solveTicket","cancelTicket","cancelTask","inventoryNumberChange","slaDateChange","specialistDateChange","comment"]},{"id":150460,"parentId":150460,"externalId":"TSK_1800000","header":"Не работает холодильный шкаф (указать, какую температуру показывает)","text":"testdescriptiontest","priority":"Низкий","createDate":1511190000000,"lastEditDate":1575469370892,"state":"Выполняется","stateId":1,"viewed":true,"syncMask":"PORTAL_ONLY","isSpecialistDate":false,"ticketState":"Выполняется","ticketStateId":1,"applicant":{"fullName":"Алексей Карчевский","userName":"master","email":"a.karchevski@pflb.ru","location":"142784, г.Москва, Киевское шоссе, 22-й км,\nБП ComCity, домовл.6, стр.1","phone":"8 (000) 123-45-67","mobilePhone":"8 (000) 123-45-67","id":106},"contractor":{"id":9,"name":"2-Ремонт","organization":"Холодильное оборудование","company":"YYY","active":true},"categories":["Технологическое оборудование","Холодильное оборудование","Холодильная камера"],"category1":"Технологическое оборудование","category2":"Холодильное оборудование","category3":"Холодильная камера","location":"default location","address":"default location","actions":["assignContractor","solveTicket","cancelTicket","cancelTask","inventoryNumberChange","slaDateChange","specialistDateChange","comment"]}],"last":false,"totalElements":332,"totalPages":34,"size":10,"number":0,"sort":[{"direction":"DESC","property":"id","ignoreCase":false,"nullHandling":"NATIVE","ascending":false,"descending":true}],"numberOfElements":10,"first":true}