{"content":[{"id":150486,"applicant":{"fullName":"Алексей Карчевский","userName":"master","email":"a.karchevski@pflb.ru","location":"142784, г.Москва, Киевское шоссе, 22-й км,\nБП ComCity, домовл.6, стр.1","phone":"8 (000) 123-45-67","mobilePhone":"8 (000) 123-45-67","id":106},"header":"Шкаф издаёт посторонние звуки","text":"testdescriptiontest","createDate":1575469840037,"lastEditDate":1575469840041,"ticketState":"Новый","ticketStateId":-1,"serviceId":2983,"inventoryNumber":"777","inventoryId":11,"syncMask":"PORTAL_ONLY","location":"Изумрудная 14","address":"Изумрудная 14","categories":["Технологическое оборудование","Холодильное оборудование","Холодильный Шкаф на Складе"],"category1":"Технологическое оборудование","category2":"Холодильное оборудование","category3":"Холодильный Шкаф на Складе","openCommunications":0,"totalCommunications":0,"actions":[]},{"id":150485,"applicant":{"fullName":"Алексей Карчевский","userName":"master","email":"a.karchevski@pflb.ru","location":"142784, г.Москва, Киевское шоссе, 22-й км,\nБП ComCity, домовл.6, стр.1","phone":"8 (000) 123-45-67","mobilePhone":"8 (000) 123-45-67","id":106},"header":"В холодильнике разбито/сломано","text":"testdescriptiontest","createDate":1575469837851,"lastEditDate":1575469837855,"ticketState":"Новый","ticketStateId":-1,"serviceId":2984,"inventoryNumber":"000008","inventoryId":8,"syncMask":"PORTAL_ONLY","location":"Барклая 24","address":"Барклая 24","categories":["Технологическое оборудование","Холодильное оборудование","Холодильный Шкаф на Складе"],"category1":"Технологическое оборудование","category2":"Холодильное оборудование","category3":"Холодильный Шкаф на Складе","openCommunications":0,"totalCommunications":0,"actions":[]},{"id":150484,"applicant":{"fullName":"Алексей Карчевский","userName":"master","email":"a.karchevski@pflb.ru","location":"142784, г.Москва, Киевское шоссе, 22-й км,\nБП ComCity, домовл.6, стр.1","phone":"8 (000) 123-45-67","mobilePhone":"8 (000) 123-45-67","id":106},"header":"Отсутствие индикации на электронном табло теплосчётчика","text":"testdescriptiontest","createDate":1575469832086,"lastEditDate":1575469832090,"ticketState":"Новый","ticketStateId":-1,"serviceId":2826,"syncMask":"PORTAL_ONLY","location":"default location","address":"default location","categories":["Инженерия","Измерительные приборы","Счетчик тепла"],"category1":"Инженерия","category2":"Измерительные приборы","category3":"Счетчик тепла","openCommunications":0,"totalCommunications":0,"actions":[]},{"id":150483,"applicant":{"fullName":"Алексей Карчевский","userName":"master","email":"a.karchevski@pflb.ru","location":"142784, г.Москва, Киевское шоссе, 22-й км,\nБП ComCity, домовл.6, стр.1","phone":"8 (000) 123-45-67","mobilePhone":"8 (000) 123-45-67","id":106},"header":"Наличие пыли, посторонних предметов, не исправные замки или их отсутствие на шкафах","text":"testdescriptiontest","createDate":1575469830037,"lastEditDate":1575469830042,"ticketState":"Новый","ticketStateId":-1,"serviceId":2828,"syncMask":"PORTAL_ONLY","location":"default location","address":"default location","categories":["Инженерия","Электрооборудование","Электрощитовая"],"category1":"Инженерия","category2":"Электрооборудование","category3":"Электрощитовая","openCommunications":0,"totalCommunications":0,"actions":[]},{"id":150482,"applicant":{"fullName":"Алексей Карчевский","userName":"master","email":"a.karchevski@pflb.ru","location":"142784, г.Москва, Киевское шоссе, 22-й км,\nБП ComCity, домовл.6, стр.1","phone":"8 (000) 123-45-67","mobilePhone":"8 (000) 123-45-67","id":106},"header":"Нарушено красочное покрытие поручней","text":"Ogdanets text 1","createDate":1575469777493,"lastEditDate":1575469777499,"ticketState":"Новый","ticketStateId":-1,"serviceId":2869,"syncMask":"PORTAL_ONLY","location":"default location","address":"default location","categories":["Инженерия","Части здания","Входная группа (ступени, пандус, поручни)"],"category1":"Инженерия","category2":"Части здания","category3":"Входная группа (ступени, пандус, поручни)","openCommunications":0,"totalCommunications":0,"actions":[]},{"id":150481,"applicant":{"fullName":"Алексей Карчевский","userName":"master","email":"a.karchevski@pflb.ru","location":"142784, г.Москва, Киевское шоссе, 22-й км,\nБП ComCity, домовл.6, стр.1","phone":"8 (000) 123-45-67","mobilePhone":"8 (000) 123-45-67","id":106},"header":"Вентиляция не работает ( в магазине душно)","text":"MX request","createDate":1575469757391,"lastEditDate":1575469757395,"ticketState":"Новый","ticketStateId":-1,"serviceId":2936,"inventoryNumber":"000010","inventoryId":10,"syncMask":"PORTAL_ONLY","location":"Изумрудная 14","address":"Изумрудная 14","categories":["Технологическое оборудование","Климатическое оборудование","Система вентиляции"],"category1":"Технологическое оборудование","category2":"Климатическое оборудование","category3":"Система вентиляции","openCommunications":0,"totalCommunications":0,"actions":[]},{"id":150480,"applicant":{"fullName":"Алексей Карчевский","userName":"master","email":"a.karchevski@pflb.ru","location":"142784, г.Москва, Киевское шоссе, 22-й км,\nБП ComCity, домовл.6, стр.1","phone":"8 (000) 123-45-67","mobilePhone":"8 (000) 123-45-67","id":106},"header":"Отсутствие уборки помещений","text":"MX request","createDate":1575469731512,"lastEditDate":1575469731515,"ticketState":"Новый","ticketStateId":-1,"serviceId":2797,"inventoryNumber":"000007","inventoryId":7,"syncMask":"PORTAL_ONLY","location":"Барклая 24","address":"Барклая 24","categories":["Экология","Уборка помещений и прилегающей территории","Уборка помещений"],"category1":"Экология","category2":"Уборка помещений и прилегающей территории","category3":"Уборка помещений","openCommunications":0,"totalCommunications":0,"actions":[]},{"id":150479,"applicant":{"fullName":"Алексей Карчевский","userName":"master","email":"a.karchevski@pflb.ru","location":"142784, г.Москва, Киевское шоссе, 22-й км,\nБП ComCity, домовл.6, стр.1","phone":"8 (000) 123-45-67","mobilePhone":"8 (000) 123-45-67","id":106},"header":"В Ларь Бонете не горит свет","text":"MX request","createDate":1575469704398,"lastEditDate":1575469704404,"ticketState":"Новый","ticketStateId":-1,"serviceId":2990,"inventoryNumber":"000006","inventoryId":6,"syncMask":"PORTAL_ONLY","location":"Барклая 24","address":"Барклая 24","categories":["Технологическое оборудование","Холодильное оборудование","Ларь Бонета"],"category1":"Технологическое оборудование","category2":"Холодильное оборудование","category3":"Ларь Бонета","openCommunications":0,"totalCommunications":0,"actions":[]},{"id":150478,"applicant":{"fullName":"Алексей Карчевский","userName":"master","email":"a.karchevski@pflb.ru","location":"142784, г.Москва, Киевское шоссе, 22-й км,\nБП ComCity, домовл.6, стр.1","phone":"8 (000) 123-45-67","mobilePhone":"8 (000) 123-45-67","id":106},"header":"Пресс не пресует","text":"MX request","createDate":1575469677779,"lastEditDate":1575469677782,"ticketState":"Новый","ticketStateId":-1,"serviceId":2905,"inventoryNumber":"000006","inventoryId":6,"syncMask":"PORTAL_ONLY","location":"Барклая 24","address":"Барклая 24","categories":["Технологическое оборудование","Инженерное оборудование","Пресс"],"category1":"Технологическое оборудование","category2":"Инженерное оборудование","category3":"Пресс","openCommunications":0,"totalCommunications":0,"actions":[]},{"id":150477,"applicant":{"fullName":"Алексей Карчевский","userName":"master","email":"a.karchevski@pflb.ru","location":"142784, г.Москва, Киевское шоссе, 22-й км,\nБП ComCity, домовл.6, стр.1","phone":"8 (000) 123-45-67","mobilePhone":"8 (000) 123-45-67","id":106},"header":"Выпала рама, оторвалась петля","text":"MX request","createDate":1575469648459,"lastEditDate":1575469648466,"ticketState":"Новый","ticketStateId":-1,"serviceId":2861,"inventoryNumber":"000008","inventoryId":8,"syncMask":"PORTAL_ONLY","location":"Барклая 24","address":"Барклая 24","categories":["Инженерия","Части здания","Окна, двери"],"category1":"Инженерия","category2":"Части здания","category3":"Окна, двери","openCommunications":0,"totalCommunications":0,"actions":[]}],"last":false,"totalElements":591,"totalPages":60,"size":10,"number":0,"sort":[{"direction":"DESC","property":"id","ignoreCase":false,"nullHandling":"NATIVE","ascending":false,"descending":true}],"numberOfElements":10,"first":true}