{"content":[{"id":150128,"parentId":150128,"externalId":"TSK_1800000","header":"Конденстор поврежден [указать чем/кем]","text":"testdescriptiontest","priority":"Низкий","createDate":1511190000000,"lastEditDate":1575457860394,"state":"Выполняется","stateId":1,"viewed":true,"syncMask":"PORTAL_ONLY","isSpecialistDate":false,"ticketState":"Выполняется","ticketStateId":1,"applicant":{"fullName":"Алексей Карчевский","userName":"master","email":"a.karchevski@pflb.ru","location":"142784, г.Москва, Киевское шоссе, 22-й км,\nБП ComCity, домовл.6, стр.1","phone":"8 (000) 123-45-67","mobilePhone":"8 (000) 123-45-67","id":106},"contractor":{"id":9,"name":"2-Ремонт","organization":"Холодильное оборудование","company":"YYY","active":true},"categories":["Технологическое оборудование","Холодильное оборудование","Центральная холодильная машина, конденсатор"],"category1":"Технологическое оборудование","category2":"Холодильное оборудование","category3":"Центральная холодильная машина, конденсатор","location":"default location","address":"default location","actions":["assignContractor","solveTicket","cancelTicket","cancelTask","inventoryNumberChange","slaDateChange","specialistDateChange","comment"]},{"id":150105,"parentId":150105,"externalId":"TSK_1800000","header":"Требуется вывезти отработанные люминесцентные лампы","text":"testdescriptiontest","priority":"Низкий","createDate":1511190000000,"lastEditDate":1575457589896,"state":"Выполняется","stateId":1,"viewed":true,"syncMask":"PORTAL_ONLY","isSpecialistDate":false,"ticketState":"Выполняется","ticketStateId":1,"applicant":{"fullName":"Алексей Карчевский","userName":"master","email":"a.karchevski@pflb.ru","location":"142784, г.Москва, Киевское шоссе, 22-й км,\nБП ComCity, домовл.6, стр.1","phone":"8 (000) 123-45-67","mobilePhone":"8 (000) 123-45-67","id":106},"contractor":{"id":9,"name":"2-Ремонт","organization":"Холодильное оборудование","company":"YYY","active":true},"categories":["Экология","Вывоз ртутьсодержащих ламп","Вывоз ртутьсодержащих ламп"],"category1":"Экология","category2":"Вывоз ртутьсодержащих ламп","category3":"Вывоз ртутьсодержащих ламп","location":"default location","address":"default location","actions":["assignContractor","solveTicket","cancelTicket","cancelTask","inventoryNumberChange","slaDateChange","specialistDateChange","comment"]},{"id":150057,"parentId":150057,"externalId":"TSK_1800000","header":"Механическое повреждение двери (сломана, погнута)","text":"testdescriptiontest","priority":"Низкий","createDate":1511190000000,"lastEditDate":1575456878047,"state":"Выполняется","stateId":1,"viewed":true,"syncMask":"PORTAL_ONLY","isSpecialistDate":false,"ticketState":"Выполняется","ticketStateId":1,"applicant":{"fullName":"Алексей Карчевский","userName":"master","email":"a.karchevski@pflb.ru","location":"142784, г.Москва, Киевское шоссе, 22-й км,\nБП ComCity, домовл.6, стр.1","phone":"8 (000) 123-45-67","mobilePhone":"8 (000) 123-45-67","id":106},"contractor":{"id":9,"name":"2-Ремонт","organization":"Холодильное оборудование","company":"YYY","active":true},"categories":["Инженерия","Камеры  хранения","Покупательские камеры  хранения"],"category1":"Инженерия","category2":"Камеры  хранения","category3":"Покупательские камеры  хранения","location":"default location","address":"default location","actions":["assignContractor","solveTicket","cancelTicket","cancelTask","inventoryNumberChange","slaDateChange","specialistDateChange","comment"]},{"id":150017,"parentId":150017,"externalId":"TSK_1800000","header":"Требуется вывезти отработанные люминесцентные лампы","text":"testdescriptiontest","priority":"Низкий","createDate":1511190000000,"lastEditDate":1575456438401,"state":"Выполняется","stateId":1,"syncMask":"PORTAL_ONLY","isSpecialistDate":false,"ticketState":"Выполняется","ticketStateId":1,"applicant":{"fullName":"Алексей Карчевский","userName":"master","email":"a.karchevski@pflb.ru","location":"142784, г.Москва, Киевское шоссе, 22-й км,\nБП ComCity, домовл.6, стр.1","phone":"8 (000) 123-45-67","mobilePhone":"8 (000) 123-45-67","id":106},"contractor":{"id":9,"name":"2-Ремонт","organization":"Холодильное оборудование","company":"YYY","active":true},"categories":["Экология","Вывоз ртутьсодержащих ламп","Вывоз ртутьсодержащих ламп"],"category1":"Экология","category2":"Вывоз ртутьсодержащих ламп","category3":"Вывоз ртутьсодержащих ламп","location":"default location","address":"default location","actions":["assignContractor","solveTicket","cancelTicket","cancelTask","inventoryNumberChange","slaDateChange","specialistDateChange","comment"]},{"id":150008,"parentId":150008,"externalId":"TSK_1800000","header":"Неравномерная работа генератора","text":"testdescriptiontest","priority":"Низкий","createDate":1511190000000,"lastEditDate":1575456358399,"state":"Выполняется","stateId":1,"viewed":true,"syncMask":"PORTAL_ONLY","isSpecialistDate":false,"ticketState":"Выполняется","ticketStateId":1,"inventoryNumber":"000010","applicant":{"fullName":"Алексей Карчевский","userName":"master","email":"a.karchevski@pflb.ru","location":"142784, г.Москва, Киевское шоссе, 22-й км,\nБП ComCity, домовл.6, стр.1","phone":"8 (000) 123-45-67","mobilePhone":"8 (000) 123-45-67","id":106},"contractor":{"id":9,"name":"2-Ремонт","organization":"Холодильное оборудование","company":"YYY","active":true},"categories":["Инженерия","Электрооборудование","Обеспечение электроэнергией от  генераторов"],"category1":"Инженерия","category2":"Электрооборудование","category3":"Обеспечение электроэнергией от  генераторов","location":"Изумрудная 14","address":"Изумрудная 14","actions":["assignContractor","solveTicket","cancelTicket","cancelTask","inventoryNumberChange","slaDateChange","specialistDateChange","comment"]},{"id":150002,"parentId":150002,"externalId":"TSK_1800000","header":"Неравномерная работа генератора","text":"testdescriptiontest","priority":"Низкий","createDate":1511190000000,"lastEditDate":1575456293706,"state":"Выполняется","stateId":1,"syncMask":"PORTAL_ONLY","isSpecialistDate":false,"ticketState":"Выполняется","ticketStateId":1,"applicant":{"fullName":"Алексей Карчевский","userName":"master","email":"a.karchevski@pflb.ru","location":"142784, г.Москва, Киевское шоссе, 22-й км,\nБП ComCity, домовл.6, стр.1","phone":"8 (000) 123-45-67","mobilePhone":"8 (000) 123-45-67","id":106},"director":{"fullName":"Васильев Павел1","userName":"director_1","email":"director@mail.com","location":"location","address":"152 Скотопрогонная ул. 13","phone":"+79778334486","mobilePhone":"8 (000) 123-45-67","workPhone":"+79778334486","organization":"organization","id":101122},"contractor":{"id":9,"name":"2-Ремонт","organization":"Холодильное оборудование","company":"YYY","active":true},"categories":["Инженерия","Электрооборудование","Обеспечение электроэнергией от  генераторов"],"category1":"Инженерия","category2":"Электрооборудование","category3":"Обеспечение электроэнергией от  генераторов","location":"152 Скотопрогонная ул. 13","address":"152 Скотопрогонная ул. 13","actions":["assignContractor","solveTicket","cancelTicket","cancelTask","inventoryNumberChange","slaDateChange","specialistDateChange","comment"]},{"id":150001,"parentId":150001,"externalId":"TSK_1800000","header":"Невозможно закрыть, постоянная течь воды","text":"testdescriptiontest","priority":"Низкий","createDate":1511190000000,"lastEditDate":1575456289929,"state":"Выполняется","stateId":1,"viewed":true,"syncMask":"PORTAL_ONLY","isSpecialistDate":false,"ticketState":"Выполняется","ticketStateId":1,"inventoryNumber":"777","applicant":{"fullName":"Алексей Карчевский","userName":"master","email":"a.karchevski@pflb.ru","location":"142784, г.Москва, Киевское шоссе, 22-й км,\nБП ComCity, домовл.6, стр.1","phone":"8 (000) 123-45-67","mobilePhone":"8 (000) 123-45-67","id":106},"contractor":{"id":9,"name":"2-Ремонт","organization":"Холодильное оборудование","company":"YYY","active":true},"categories":["Инженерия","Сантехника","Раковина, Унитаз, Мойка"],"category1":"Инженерия","category2":"Сантехника","category3":"Раковина, Унитаз, Мойка","location":"Изумрудная 14","address":"Изумрудная 14","actions":["assignContractor","solveTicket","cancelTicket","cancelTask","inventoryNumberChange","slaDateChange","specialistDateChange","comment"]},{"id":149996,"parentId":149996,"externalId":"TSK_1800000","header":"Лифт не поднимает / не опускает","text":"testdescriptiontest","priority":"Низкий","createDate":1511190000000,"lastEditDate":1575456220228,"state":"Выполняется","stateId":1,"viewed":true,"syncMask":"PORTAL_ONLY","isSpecialistDate":false,"ticketState":"Выполняется","ticketStateId":1,"inventoryNumber":"000007","applicant":{"fullName":"Алексей Карчевский","userName":"master","email":"a.karchevski@pflb.ru","location":"142784, г.Москва, Киевское шоссе, 22-й км,\nБП ComCity, домовл.6, стр.1","phone":"8 (000) 123-45-67","mobilePhone":"8 (000) 123-45-67","id":106},"contractor":{"id":9,"name":"2-Ремонт","organization":"Холодильное оборудование","company":"YYY","active":true},"categories":["Технологическое оборудование","Подъемные и передвижные механизмы","Эскалатор, лифт, подъемник"],"category1":"Технологическое оборудование","category2":"Подъемные и передвижные механизмы","category3":"Эскалатор, лифт, подъемник","location":"Барклая 24","address":"Барклая 24","actions":["assignContractor","solveTicket","cancelTicket","cancelTask","inventoryNumberChange","slaDateChange","specialistDateChange","comment"]},{"id":149995,"parentId":149995,"externalId":"TSK_1800000","header":"В холодильнике не горит свет","text":"testdescriptiontest","priority":"Низкий","createDate":1511190000000,"lastEditDate":1575456217031,"state":"Выполняется","stateId":1,"syncMask":"PORTAL_ONLY","isSpecialistDate":false,"ticketState":"Выполняется","ticketStateId":1,"applicant":{"fullName":"Алексей Карчевский","userName":"master","email":"a.karchevski@pflb.ru","location":"142784, г.Москва, Киевское шоссе, 22-й км,\nБП ComCity, домовл.6, стр.1","phone":"8 (000) 123-45-67","mobilePhone":"8 (000) 123-45-67","id":106},"director":{"fullName":"Васильев Павел1","userName":"director_1","email":"director@mail.com","location":"location","address":"152 Скотопрогонная ул. 13","phone":"+79778334486","mobilePhone":"8 (000) 123-45-67","workPhone":"+79778334486","organization":"organization","id":101122},"contractor":{"id":9,"name":"2-Ремонт","organization":"Холодильное оборудование","company":"YYY","active":true},"categories":["Технологическое оборудование","Холодильное оборудование","Холодильная пристенная горка"],"category1":"Технологическое оборудование","category2":"Холодильное оборудование","category3":"Холодильная пристенная горка","location":"152 Скотопрогонная ул. 13","address":"152 Скотопрогонная ул. 13","actions":["assignContractor","solveTicket","cancelTicket","cancelTask","inventoryNumberChange","slaDateChange","specialistDateChange","comment"]},{"id":149987,"parentId":149987,"externalId":"TSK_1800000","header":"Разбито стекло (примерный размет стекла- стеклопакета)","text":"testdescriptiontest","priority":"Низкий","createDate":1511190000000,"lastEditDate":1575456089840,"state":"Выполняется","stateId":1,"syncMask":"PORTAL_ONLY","isSpecialistDate":false,"ticketState":"Выполняется","ticketStateId":1,"applicant":{"fullName":"Алексей Карчевский","userName":"master","email":"a.karchevski@pflb.ru","location":"142784, г.Москва, Киевское шоссе, 22-й км,\nБП ComCity, домовл.6, стр.1","phone":"8 (000) 123-45-67","mobilePhone":"8 (000) 123-45-67","id":106},"director":{"fullName":"Васильев Павел1","userName":"director_1","email":"director@mail.com","location":"location","address":"152 Скотопрогонная ул. 13","phone":"+79778334486","mobilePhone":"8 (000) 123-45-67","workPhone":"+79778334486","organization":"organization","id":101122},"contractor":{"id":9,"name":"2-Ремонт","organization":"Холодильное оборудование","company":"YYY","active":true},"categories":["Инженерия","Части здания","Окна, двери"],"category1":"Инженерия","category2":"Части здания","category3":"Окна, двери","location":"152 Скотопрогонная ул. 13","address":"152 Скотопрогонная ул. 13","actions":["assignContractor","solveTicket","cancelTicket","cancelTask","inventoryNumberChange","slaDateChange","specialistDateChange","comment"]}],"last":false,"totalElements":335,"totalPages":34,"size":10,"number":0,"sort":[{"direction":"DESC","property":"id","ignoreCase":false,"nullHandling":"NATIVE","ascending":false,"descending":true}],"numberOfElements":10,"first":true}